
PAGE08-DIRECTION.png
size: 2048,1024
format: RGBA8888
filter: Linear,Linear
repeat: none
images/placa
  rotate: false
  xy: 2, 2
  size: 1069, 541
  orig: 1069, 541
  offset: 0, 0
  index: -1
images/prego
  rotate: true
  xy: 1073, 372
  size: 171, 166
  orig: 171, 166
  offset: 0, 0
  index: -1
