%YAML 1.1
%TAG !u! tag:unity3d.com,2011:
--- !u!21 &2100000
Material:
  serializedVersion: 8
  m_ObjectHideFlags: 0
  m_CorrespondingSourceObject: {fileID: 0}
  m_PrefabInstance: {fileID: 0}
  m_PrefabAsset: {fileID: 0}
  m_Name: PAGE14-Telhas_Material-Multiply
  m_Shader: {fileID: 4800000, guid: 8bdcdc7ee298e594a9c20c61d25c33b6, type: 3}
  m_ValidKeywords:
  - _STRAIGHT_ALPHA_INPUT
  m_InvalidKeywords:
  - _USE8NEIGHBOURHOOD_ON
  m_LightmapFlags: 4
  m_EnableInstancingVariants: 0
  m_DoubleSidedGI: 0
  m_CustomRenderQueue: -1
  stringTagMap: {}
  disabledShaderPasses: []
  m_SavedProperties:
    serializedVersion: 3
    m_TexEnvs:
    - <noninit>:
        m_Texture: {fileID: 0}
        m_Scale: {x: 1, y: 1}
        m_Offset: {x: 0, y: 0}
    - _MainTex:
        m_Texture: {fileID: 2800000, guid: 1d96a2ff8e84e3343b89392adc06f937, type: 3}
        m_Scale: {x: 1, y: 1}
        m_Offset: {x: 0, y: 0}
    m_Ints: []
    m_Floats:
    - <noninit>: 0
    - _Cutoff: 0.1
    - _OutlineMipLevel: 0
    - _OutlineReferenceTexWidth: 1024
    - _OutlineSmoothness: 1
    - _OutlineWidth: 3
    - _StencilComp: 8
    - _StencilRef: 1
    - _StraightAlphaInput: 1
    - _ThresholdEnd: 0.25
    - _Use8Neighbourhood: 1
    m_Colors:
    - <noninit>: {r: 0, g: 2.018574, b: 1e-45, a: 0.000007110106}
    - _Color: {r: 1, g: 1, b: 1, a: 1}
    - _OutlineColor: {r: 1, g: 1, b: 0, a: 1}
  m_BuildTextureStacks: []
